…
Here is a right version, and let’s make a comparison.

``` r
filter(gapminder, country %in% c("Rwanda", "Afghanistan"))
```

    ## # A tibble: 24 x 6
    ##    country     continent  year lifeExp      pop gdpPercap
    ##    <fct>       <fct>     <int>   <dbl>    <int>     <dbl>
    ##  1 Afghanistan Asia       1952    28.8  8425333      779.
    ##  2 Afghanistan Asia       1957    30.3  9240934      821.
    ##  3 Afghanistan Asia       1962    32.0 10267083      853.
    ##  4 Afghanistan Asia       1967    34.0 11537966      836.
    ##  5 Afghanistan Asia       1972    36.1 13079460      740.
    ##  6 Afghanistan Asia       1977    38.4 14880372      786.
    ##  7 Afghanistan Asia       1982    39.9 12881816      978.
    ##  8 Afghanistan Asia       1987    40.8 13867957      852.
    ##  9 Afghanistan Asia       1992    41.7 16317921      649.
    ## 10 Afghanistan Asia       1997    41.8 22227415      635.
    ## # ... with 14 more rows
…
## Use more of the dplyr functions for operating on a single table.

### `arrange()`

We can use `arrange()` to re-order rows.

``` r
gapminder %>% 
  # re-order rows, first by continent, then country, then year
  arrange(continent, country, year) %>% 
  # re-order columns to first show continent then country
  select(continent, country, everything())
```

    ## # A tibble: 1,704 x 6
    ##    continent country  year lifeExp      pop gdpPercap
    ##    <fct>     <fct>   <int>   <dbl>    <int>     <dbl>
    ##  1 Africa    Algeria  1952    43.1  9279525     2449.
    ##  2 Africa    Algeria  1957    45.7 10270856     3014.
    ##  3 Africa    Algeria  1962    48.3 11000948     2551.
    ##  4 Africa    Algeria  1967    51.4 12760499     3247.
    ##  5 Africa    Algeria  1972    54.5 14760787     4183.
    ##  6 Africa    Algeria  1977    58.0 17152804     4910.
    ##  7 Africa    Algeria  1982    61.4 20033753     5745.
    ##  8 Africa    Algeria  1987    65.8 23254956     5681.
    ##  9 Africa    Algeria  1992    67.7 26298373     5023.
    ## 10 Africa    Algeria  1997    69.2 29072015     4797.
    ## # ... with 1,694 more rows
…
We can use `mutate()` to create new columns. For example, we can
calulate log10 of “lifeExp”, and show “pop” in million.

``` r
gapminder %>% 
  # mutate lifeExp to lifeExpInLog10 and pop to popInMillion
  mutate(
    lifeExpInLog10 = log10(lifeExp),
    popInMillion = pop / 1000000
  ) %>% 
  # delete original columns
  select(-lifeExp, -pop)
```

    ## # A tibble: 1,704 x 6
    ##    country     continent  year gdpPercap lifeExpInLog10 popInMillion
    ##    <fct>       <fct>     <int>     <dbl>          <dbl>        <dbl>
    ##  1 Afghanistan Asia       1952      779.           1.46         8.43
    ##  2 Afghanistan Asia       1957      821.           1.48         9.24
    ##  3 Afghanistan Asia       1962      853.           1.51        10.3 
    ##  4 Afghanistan Asia       1967      836.           1.53        11.5 
    ##  5 Afghanistan Asia       1972      740.           1.56        13.1 
    ##  6 Afghanistan Asia       1977      786.           1.58        14.9 
    ##  7 Afghanistan Asia       1982      978.           1.60        12.9 
    ##  8 Afghanistan Asia       1987      852.           1.61        13.9 
    ##  9 Afghanistan Asia       1992      649.           1.62        16.3 
    ## 10 Afghanistan Asia       1997      635.           1.62        22.2 
    ## # ... with 1,694 more rows
…
